14.3145	2756.22	228.06
16.5785	3638.27	239.5
16.3872	3885.7	230.17
14.2456	2662.78	219.69
13.7819	2726.81	217.572
========================
The order of rows are Acetone, Methanol, Water, MethylAcetate and Benzene respectively.
Columns go A, B, and C
These constants for Psat in kPa and T in Celcius